<?xml version="1.0" encoding="UTF-8" standalone="no"?>
<!-- Created with Inkscape (http://www.inkscape.org/) -->

<svg
   xmlns:osb="http://www.openswatchbook.org/uri/2009/osb"
   xmlns:dc="http://purl.org/dc/elements/1.1/"
   xmlns:cc="http://creativecommons.org/ns#"
   xmlns:rdf="http://www.w3.org/1999/02/22-rdf-syntax-ns#"
   xmlns:svg="http://www.w3.org/2000/svg"
   xmlns="http://www.w3.org/2000/svg"
   xmlns:xlink="http://www.w3.org/1999/xlink"
   xmlns:sodipodi="http://sodipodi.sourceforge.net/DTD/sodipodi-0.dtd"
   xmlns:inkscape="http://www.inkscape.org/namespaces/inkscape"
   width="744.09448819"
   height="1052.3622047"
   id="svg2"
   version="1.1"
   inkscape:version="0.48.4 r9939"
   sodipodi:docname="Logo.svg">
  <defs
     id="defs4">
    <linearGradient
       id="linearGradient3860"
       osb:paint="solid">
      <stop
         style="stop-color:#000000;stop-opacity:1;"
         offset="0"
         id="stop3862" />
    </linearGradient>
  </defs>
  <sodipodi:namedview
     id="base"
     pagecolor="#ffffff"
     bordercolor="#666666"
     borderopacity="1.0"
     inkscape:pageopacity="0.0"
     inkscape:pageshadow="2"
     inkscape:zoom="1"
     inkscape:cx="240.43613"
     inkscape:cy="935.0151"
     inkscape:document-units="px"
     inkscape:current-layer="layer2"
     showgrid="false"
     inkscape:window-width="1856"
     inkscape:window-height="1058"
     inkscape:window-x="56"
     inkscape:window-y="-8"
     inkscape:window-maximized="1" />
  <metadata
     id="metadata7">
    <rdf:RDF>
      <cc:Work
         rdf:about="">
        <dc:format>image/svg+xml</dc:format>
        <dc:type
           rdf:resource="http://purl.org/dc/dcmitype/StillImage" />
        <dc:title></dc:title>
      </cc:Work>
    </rdf:RDF>
  </metadata>
  <g
     inkscape:label="Layer 1"
     inkscape:groupmode="layer"
     id="layer1"
     style="display:inline;opacity:0.23451327"
     sodipodi:insensitive="true">
    <image
       y="-427.06641"
       x="-419.42856"
       id="image3028"
       xlink:href="file:///C:/Users/Dmitri/Dropbox/Public/Flash%20Develop/Music%20Dash%20AIR/misc/Discordlings_disc.png"
       height="1136"
       width="1136" />
  </g>
  <g
     inkscape:groupmode="layer"
     id="layer4"
     inkscape:label="Skin"
     style="display:inline"
     sodipodi:insensitive="true">
    <path
       style="fill:#9cd9f7;fill-opacity:1;stroke:none"
       d="m 143,248.61218 c 0,0 26.25,1.75 54.75,-14.25 28.5,-16 51.25,-50 54.5,-83 3.25,-33 -10.25,-51.749998 -10.25,-51.749998 l -7,-6 c 0,0 -1.75,-17.5 -10,-29.5 -8.25,-12 -10.75,-7 -10.75,-7 0,0 -6,11.5 -7.75,25.75 -1.75,14.25 -3.25,12.75 -3.25,12.75 l -13.5,10.499998 c 0,0 -7.6875,7.1875 -8.6875,9.875 -1,2.6875 -0.25,-5.5625 0.1875,-7.6875 0.4375,-2.125 8.6875,-16.062499 8.6875,-16.062499 0,0 -20,11.187499 -35,13.812499 -15,2.625 -27.0625,5.8125 -27.0625,5.8125 0,0 -6.8125,9.375 -8.875,24 -2.0625,14.625 -0.1875,24.5 -0.1875,24.5 l -12,0.3125 c 0,0 -0.5625,21.3125 13.9375,32.125 14.5,10.8125 30.3125,13 40.6875,12.3125 10.375,-0.6875 16.1875,-3.8125 16.1875,-3.8125 0,0 -3.1875,11.8125 -11.4375,21.0625 -8.25,9.25 -23.1875,26.25 -23.1875,26.25 z"
       id="path3902"
       inkscape:connector-curvature="0" />
  </g>
  <g
     inkscape:groupmode="layer"
     id="layer2"
     inkscape:label="Hair outline"
     style="display:inline">
    <path
       style="font-size:medium;font-style:normal;font-variant:normal;font-weight:normal;font-stretch:normal;text-indent:0;text-align:start;text-decoration:none;line-height:normal;letter-spacing:normal;word-spacing:normal;text-transform:none;direction:ltr;block-progression:tb;writing-mode:lr-tb;text-anchor:start;baseline-shift:baseline;color:#000000;fill:#239ad2;fill-opacity:1;stroke:none;stroke-width:1px;marker:none;visibility:visible;display:inline;overflow:visible;enable-background:accumulate;font-family:Sans;-inkscape-font-specification:Sans"
       d="m 123.03125,46.78125 0.5,1.21875 c 1.24041,2.963077 4.79872,5.073149 7.78125,6.40625 1.49127,0.66655 2.97927,1.22458 4.21875,1.78125 0.18887,0.08483 0.23081,0.164705 0.40625,0.25 -6.42679,-1.380927 -13.85379,-1.152599 -19.6875,0.96875 -6.68366,2.430424 -11.48357,5.09926 -15.3125,7 -7.023797,3.486724 -12.625,5.25 -12.625,5.25 l -1.625,0.875 c 0,0 0.784255,0.345805 1.15625,0.5625 0.918796,0.535217 0.890798,0.910861 2.625,1.8125 1.734202,0.901639 4.346079,1.814963 7.90625,1.90625 3.54045,0.09078 5.82264,-0.464682 8.03125,-1.21875 1.54079,-0.526059 3.21333,-1.110074 5.15625,-1.65625 -1.95062,1.278471 -4.35269,2.542887 -7.53125,4.71875 -4.402345,3.013598 -8.275481,7.099644 -15.4375,15.8125 -5.440358,6.618392 -9.313702,10.79909 -13.5,13.8125 -3.950319,2.84355 -8.233549,4.3255 -13.9375,8.15625 l -1.375,0.90625 1.65625,0.0312 c 32.44021,0.10062 60.55516,-0.5574 81.53125,-5.21875 19.90641,-4.42365 34.99599,-10.274628 44.46875,-15.21875 -1.9609,3.198343 -2.75629,4.619604 -4.34375,7.46875 -1.85034,3.32095 -3.16006,7.47238 -3.25,14.9375 l 0,1.78125 0.9375,-1.5 c 3.99349,-6.38958 7.15226,-9.50065 10.53125,-12.0625 3.37899,-2.56185 7.0209,-4.58377 11.875,-8.71875 0.5923,-0.504554 1.12603,-1.06367 1.625,-1.65625 l 0.25,-3.34375 c -0.89026,1.366009 -1.94297,2.591467 -3.15625,3.625 -4.78875,4.07931 -7.76739,6.69578 -11.21875,9.3125 -3.14489,2.38436 -5.80899,4.57956 -9.375,9.96875 0.25057,-6.25097 1.65288,-8.82744 3.28125,-11.75 1.77436,-3.184593 3.50967,-5.755404 5.84375,-10.03125 l 0.9375,-2.375 -2.125,1.5625 c -9.09468,4.925281 -26.50386,11.24391 -47.34375,15.875 -20.39343,4.53187 -42.712351,4.72532 -74.40625,5.1875 5.53133,-2.12967 6.470581,-3.12744 10.1875,-5.78125 4.055495,-2.89555 6.79902,-6.14823 12.09375,-13.03125 6.611128,-8.594305 11.65863,-13.580787 15.96875,-16.53125 4.31012,-2.950463 8.4786,-5.94338 9.78125,-6.875 1.30265,-0.93162 3.03125,-2.34375 3.03125,-2.34375 0,0 -2.54118,0.71895 -4.3125,1.0625 -1.77132,0.34355 -6.12196,1.481521 -8.28125,2.21875 -2.15929,0.737229 -4.01367,1.33779 -7.4375,1.25 -3.401827,-0.08723 -4.729166,-0.691803 -6.34375,-1.53125 -1.123354,-0.584049 -1.586728,-0.841273 -1.90625,-1.125 0.719125,-0.227262 4.950673,-1.678161 11.78125,-4.34375 3.74504,-1.461479 8.58099,-4.452745 15.15625,-6.84375 6.57526,-2.391005 12.0787,-3.100579 19,-1.65625 l 3.84375,0.90625 c 0,0 -1.30482,-1.597208 -1.53125,-1.8125 -0.22643,-0.215292 -1.41603,-0.971069 -2.59375,-1.5 -1.28284,-0.576143 -2.63859,-1.505836 -4.09375,-2.15625 -2.63624,-1.178321 -5.86766,-3.322928 -6.25,-4.96875 6.24266,2.354179 37.04501,1.696875 52.09375,5.0625 14.21798,3.179828 29.77978,13.699364 30.09375,13.90625 0.0266,0.176792 0.52176,1.646452 0.90625,3.9375 l 1.0625,-3.5 c -0.0919,-0.796603 -0.15625,-1.34375 -0.15625,-1.34375 L 209.5625,66 209.375,65.875 c 0,0 -16.34248,-12.102665 -31.15625,-14.8125 -14.73321,-2.6951 -41.91723,-2.47587 -52.53125,-3.90625 l -2.65625,-0.375 z"
       id="path3806"
       inkscape:connector-curvature="0" />
    <path
       style="font-size:medium;font-style:normal;font-variant:normal;font-weight:normal;font-stretch:normal;text-indent:0;text-align:start;text-decoration:none;line-height:normal;letter-spacing:normal;word-spacing:normal;text-transform:none;direction:ltr;block-progression:tb;writing-mode:lr-tb;text-anchor:start;baseline-shift:baseline;color:#000000;fill:#239ad2;fill-opacity:1;stroke:none;stroke-width:3;marker:none;visibility:visible;display:inline;overflow:visible;enable-background:accumulate;font-family:Sans;-inkscape-font-specification:Sans"
       d="m 104.125,114.03125 -3,0.15625 c -0.0188,-0.35575 0.0181,-0.0771 -0.125,0.25 -0.14308,0.32712 -0.40356,0.80065 -0.75,1.375 -0.692878,1.1487 -1.759572,2.684 -3.1875,4.46875 -2.855855,3.5695 -7.13379,8.12787 -12.625,12.625 -10.98242,8.99425 -26.841135,17.8088 -46.375,18.71875 l 0.125,3 c 20.357304,-0.94831 36.82134,-10.12332 48.15625,-19.40625 5.667455,-4.64147 10.072646,-9.32551 13.0625,-13.0625 1.49493,-1.86849 2.61945,-3.50809 3.40625,-4.8125 0.3934,-0.65221 0.7159,-1.21211 0.9375,-1.71875 0.2216,-0.50664 0.41389,-0.85887 0.375,-1.59375 z"
       id="path3812"
       inkscape:connector-curvature="0" />
    <g
       id="g3837">
      <path
         id="path3816"
         style="fill:#000000;fill-opacity:1;stroke:#000000;stroke-width:3;stroke-linecap:butt;stroke-miterlimit:4;stroke-opacity:1;stroke-dasharray:none"
         d="M 146.75,-0.125 C 68.463637,-0.125 5,63.338637 5,141.625 c 0,78.28636 63.463637,141.75 141.75,141.75 78.28636,0 141.75,-63.46364 141.75,-141.75 0,-78.286363 -63.46364,-141.75 -141.75,-141.75 z m 0,16.3125 c 69.26909,0 125.4375,56.168414 125.4375,125.4375 0,69.26909 -56.16841,125.40625 -125.4375,125.40625 -69.269086,0 -125.4375,-56.13716 -125.4375,-125.40625 0,-69.269086 56.168414,-125.4375 125.4375,-125.4375 z"
         inkscape:connector-curvature="0" />
    </g>
    <path
       style="font-size:medium;font-style:normal;font-variant:normal;font-weight:normal;font-stretch:normal;text-indent:0;text-align:start;text-decoration:none;line-height:normal;letter-spacing:normal;word-spacing:normal;text-transform:none;direction:ltr;block-progression:tb;writing-mode:lr-tb;text-anchor:start;baseline-shift:baseline;color:#000000;fill:#239ad2;fill-opacity:1;stroke:none;stroke-width:3;marker:none;visibility:visible;display:inline;overflow:visible;enable-background:accumulate;font-family:Sans;-inkscape-font-specification:Sans"
       d="m 63.28125,210.03125 3.8125,5.40625 c 0,0 14.131978,11.90717 40.40625,11.90717 22.73384,0 34.34002,-1.44257 47.4375,-5.90717 -13.90163,5.98323 -25.01545,14.72771 -37.5,23.3125 l 4.1198,1.3027 c 12.81638,-11.25225 34.76582,-22.73656 38.0052,-26.02145 3.23938,-3.28489 4.71875,-4.78125 4.71875,-4.78125 l -5.0625,1.96875 c -15.36877,5.9492 -26.03671,8.36336 -51.71875,8.36336 -22.927631,0 -44.21875,-15.55086 -44.21875,-15.55086 z"
       id="path3844"
       inkscape:connector-curvature="0"
       sodipodi:nodetypes="ccsccczccsc" />
    <path
       style="font-size:medium;font-style:normal;font-variant:normal;font-weight:normal;font-stretch:normal;text-indent:0;text-align:start;text-decoration:none;line-height:normal;letter-spacing:normal;word-spacing:normal;text-transform:none;direction:ltr;block-progression:tb;writing-mode:lr-tb;text-anchor:start;baseline-shift:baseline;color:#000000;fill:#239ad2;fill-opacity:1;stroke:none;stroke-width:2;marker:none;visibility:visible;display:inline;overflow:visible;enable-background:accumulate;font-family:Sans;-inkscape-font-specification:Sans"
       d="m 248.03125,112.625 c -1.59705,12.67187 -11.45247,34.32267 -30.28125,49.1875 -9.48728,7.48996 -15.49715,11.29422 -19,13.6875 -3.50285,2.39328 -4.53125,2.84375 -4.53125,2.84375 l -2.09375,0.96875 2.125,0.875 c 0,0 1.45431,0.58749 3.9375,0.875 2.48319,0.28751 6.06613,0.30679 10.53125,-0.71875 5.36866,-1.23307 9.74186,-3.84293 13.15625,-6.21875 -4.47871,10.68942 -15.4839,29.45867 -29.28125,46.875 -7.61826,9.6165 -12.79784,14.80018 -15.4375,17.8125 -2.63966,3.01232 -4.90625,5.28125 -4.90625,5.28125 l 2.875,-0.21875 c 0,0 0.85841,-0.69982 3.53125,-3.75 2.67284,-3.05018 7.24326,-8.52275 14.875,-18.15625 15.29862,-19.31137 27.2422,-38.97285 30.84375,-49.625 l 1.125,-3.3125 -2.6875,2.21875 c -4.43418,3.63991 -7.79304,5.57738 -14.53125,7.125 -4.23172,0.97194 -7.59804,0.95113 -9.875,0.6875 -0.81372,-0.0942 -0.69644,-0.13389 -1.21875,-0.25 0.73745,-0.42992 0.70316,-0.33172 2.6875,-1.6875 3.55651,-2.42994 9.48728,-6.70871 19,-14.21875 19.17122,-15.13517 29.30686,-37.78985 30.21875,-47.625 0.91189,-9.83515 -0.0646,-2.35809 -1.0625,-2.65625 z"
       id="path3850"
       inkscape:connector-curvature="0"
       sodipodi:nodetypes="csscccsscssccsscccsccsscc" />
  </g>
  <g
     inkscape:groupmode="layer"
     id="layer3"
     inkscape:label="Skin Outline"
     style="display:inline">
    <path
       style="font-size:medium;font-style:normal;font-variant:normal;font-weight:normal;font-stretch:normal;text-indent:0;text-align:start;text-decoration:none;line-height:normal;letter-spacing:normal;word-spacing:normal;text-transform:none;direction:ltr;block-progression:tb;writing-mode:lr-tb;text-anchor:start;baseline-shift:baseline;color:#000000;fill:#74aede;fill-opacity:1;stroke:none;stroke-width:1px;marker:none;visibility:visible;display:inline;overflow:visible;enable-background:accumulate;font-family:Sans;-inkscape-font-specification:Sans"
       d="m 126.13503,112.9146 c 0,0 -6.26527,8.20848 -8.28148,23.33004 -1.35978,10.19833 -1.33982,21.89874 -1.25975,22.75536 -0.4695,-0.0198 -1.13466,-0.11625 -3.65625,-0.0312 -1.40352,0.0473 -3.18721,0.0118 -4.34375,0.2188 -0.57827,0.10348 -1.32827,0.0101 -1.75,0.1875 -0.42173,0.17736 -0.50687,1.26604 -0.625,2.03125 -0.036,0.23333 -0.0205,1.44332 0.0107,2.16397 0.0479,1.10425 0.1163,1.87602 0.2706,3.30478 0.30871,2.85752 1.04493,6.57827 2.53125,10.53125 2.97264,7.90596 9.30646,16.18479 20.4277,22.07138 10.9849,5.81444 23.48524,6.29347 32.10041,6.26203 4.30758,-0.0157 7.24587,-0.45336 9.93306,-1.24058 2.27656,-0.66692 2.54637,-1.03894 3.61389,-1.52053 -1.15533,5.79279 -6.27902,13.20269 -12.77236,22.29106 -6.50303,9.10192 -15.20934,17.5094 -21.1777,22.98039 l 4.1875,-0.0312 c 6.03164,-5.52901 12.60531,-13.59905 19.40625,-22.5625 6.80094,-8.96345 12.3422,-17.99383 13.25,-24.21875 l 0.15625,-1.0625 -0.90625,0.5625 c -0.66325,0.40815 -2.42506,1.13443 -5.12278,1.87565 -2.18383,0.60003 -5.95964,0.99666 -10.2143,0.94795 -8.86339,-0.10148 -18.7621,-0.1552 -30.32009,-6.09597 -10.90299,-5.6041 -17.47953,-12.88302 -20.38036,-20.60263 -1.43683,-3.82363 -2.07425,-7.18501 -2.64553,-10.28125 -0.25577,-1.38624 -0.34039,-2.62625 -0.3953,-3.28661 -0.0549,-0.66037 -0.14678,-1.22226 0.11049,-1.67383 0.27871,-0.4891 0.48736,-0.62063 0.81935,-0.67237 0.43472,-0.0677 0.88679,-0.15407 1.42969,-0.17969 1.07783,-0.0508 1.90276,-0.0542 3.28125,-0.0625 2.81601,-0.0169 3.32673,-0.004 5.68122,0.0356 0,0 -0.31466,-1.30257 -0.36872,-3.64981 -0.18886,-8.20045 -0.39457,-11.58838 0.83211,-21.85463 1.78084,-14.90409 9.94428,-22.98645 9.94428,-22.98645 z"
       id="path3881"
       inkscape:connector-curvature="0"
       sodipodi:nodetypes="csccsssscsssscsccscccssssszsssscsscc" />
    <path
       style="font-size:medium;font-style:normal;font-variant:normal;font-weight:normal;font-stretch:normal;text-indent:0;text-align:start;text-decoration:none;line-height:normal;letter-spacing:normal;word-spacing:normal;text-transform:none;direction:ltr;block-progression:tb;writing-mode:lr-tb;text-anchor:start;baseline-shift:baseline;color:#000000;fill:#74aede;fill-opacity:1;stroke:none;stroke-width:1px;marker:none;visibility:visible;display:inline;overflow:visible;enable-background:accumulate;font-family:Sans;-inkscape-font-specification:Sans"
       d="m 214.65625,55.8125 -0.1875,0.25 c -4.35734,6.023381 -6.99498,16.534126 -8.59375,25.5625 -1.59877,9.028374 -2.125,16.5625 -2.125,16.5625 l -0.0312,0.40625 0.375,0.125 9.625,3 0.0312,0 0.0312,0 23.5,4.25 0.71875,0.125 -0.125,-0.6875 -4.625,-24 0,-0.03125 -0.0312,-0.03125 c 0,0 -1.66212,-5.77828 -4.75,-11.84375 -3.08788,-6.06547 -7.5693,-12.504757 -13.5,-13.625 z m 0.4375,1.15625 c 5.17687,1.185298 8.64933,7.123682 11.625,12.96875 3.02127,5.934628 5.13915,11.597062 5.15625,11.65625 l 4.875,23.28125 -22.71875,-4.125 -0.0625,0 -8.5625,-2.875 c 0.0431,-0.588497 0.3211,-7.870257 1.84375,-16.46875 1.56393,-8.831581 3.81057,-18.656913 7.84375,-24.4375 z"
       id="path3887"
       inkscape:connector-curvature="0"
       sodipodi:nodetypes="ccsccccccccccccscccscccccsc" />
    <path
       style="font-size:medium;font-style:normal;font-variant:normal;font-weight:normal;font-stretch:normal;text-indent:0;text-align:start;text-decoration:none;line-height:normal;letter-spacing:normal;word-spacing:normal;text-transform:none;direction:ltr;block-progression:tb;writing-mode:lr-tb;text-anchor:start;baseline-shift:baseline;color:#000000;fill:#74aede;fill-opacity:1;stroke:none;stroke-width:2;marker:none;visibility:visible;display:inline;overflow:visible;enable-background:accumulate;font-family:Sans;-inkscape-font-specification:Sans"
       d="m 219.29197,75.225492 c -0.66782,1.486766 0.33396,3.469395 0.82675,5.944083 0.49279,2.474688 0.2045,11.938035 1.2045,11.884422 1,-0.05361 0.84598,-8.511884 0.32231,-11.141623 -0.52367,-2.629739 -1.37298,-5.358636 -2.35356,-6.686882 z"
       id="path3893"
       inkscape:connector-curvature="0"
       sodipodi:nodetypes="cscsc" />
  </g>
  <g
     inkscape:groupmode="layer"
     id="layer5"
     inkscape:label="Earphones">
    <path
       sodipodi:type="arc"
       style="fill:#000000;fill-opacity:1;stroke:none"
       id="path3924"
       sodipodi:cx="218.75"
       sodipodi:cy="122.36218"
       sodipodi:rx="28"
       sodipodi:ry="28"
       d="m 246.75,122.36218 a 28,28 0 1 1 -56,0 28,28 0 1 1 56,0 z"
       transform="translate(0,-0.75)" />
    <path
       style="fill:#000000;stroke:none;stroke-width:1px;stroke-linecap:butt;stroke-linejoin:miter;stroke-opacity:1;fill-opacity:1"
       d="m 242.09568,59.05393 c 0,0 -6.55562,-4.107675 -9.63432,-5.922019 -3.0787,-1.814345 -7.07107,-3.889088 -8.75045,-2.474874 -1.67938,1.414213 -1.23744,2.916815 -0.61872,4.242641 0.61872,1.325825 6.4446,18.307827 8.04334,26.074562 1.59873,7.766736 1.76776,20.32932 1.76776,20.32932 l 12.37438,28.90299 c 0,0 4.86135,-17.14734 1.85615,-35.797281 -2.03293,-9.987883 -4.50781,-16.086679 -4.50781,-16.086679 0,0 22.53903,13.965358 26.33973,36.85794 3.8007,22.89258 -6.09879,-42.161241 -6.09879,-42.161241 z"
       id="path3926"
       inkscape:connector-curvature="0"
       sodipodi:nodetypes="czsszccccscc" />
  </g>
</svg>
