<?xml version="1.0" encoding="UTF-8" standalone="no"?>
<!-- Created with Inkscape (http://www.inkscape.org/) -->

<svg
   xmlns:dc="http://purl.org/dc/elements/1.1/"
   xmlns:cc="http://creativecommons.org/ns#"
   xmlns:rdf="http://www.w3.org/1999/02/22-rdf-syntax-ns#"
   xmlns:svg="http://www.w3.org/2000/svg"
   xmlns="http://www.w3.org/2000/svg"
   xmlns:sodipodi="http://sodipodi.sourceforge.net/DTD/sodipodi-0.dtd"
   xmlns:inkscape="http://www.inkscape.org/namespaces/inkscape"
   width="744.09448819"
   height="1052.3622047"
   id="svg2"
   version="1.1"
   inkscape:version="0.48.1 "
   sodipodi:docname="PausedScreen.svg">
  <defs
     id="defs4">
    <marker
       inkscape:stockid="Tail"
       orient="auto"
       refY="0.0"
       refX="0.0"
       id="Tail"
       style="overflow:visible">
      <g
         id="g3809"
         transform="scale(-1.2)">
        <path
           id="path3811"
           d="M -3.8048674,-3.9585227 L 0.54352094,0"
           style="fill:none;fill-rule:evenodd;stroke:#000000;stroke-width:0.8;marker-start:none;marker-end:none;stroke-linecap:round" />
        <path
           id="path3813"
           d="M -1.2866832,-3.9585227 L 3.0617053,0"
           style="fill:none;fill-rule:evenodd;stroke:#000000;stroke-width:0.8;marker-start:none;marker-end:none;stroke-linecap:round" />
        <path
           id="path3815"
           d="M 1.3053582,-3.9585227 L 5.6537466,0"
           style="fill:none;fill-rule:evenodd;stroke:#000000;stroke-width:0.8;marker-start:none;marker-end:none;stroke-linecap:round" />
        <path
           id="path3817"
           d="M -3.8048674,4.1775838 L 0.54352094,0.21974226"
           style="fill:none;fill-rule:evenodd;stroke:#000000;stroke-width:0.8;marker-start:none;marker-end:none;stroke-linecap:round" />
        <path
           id="path3819"
           d="M -1.2866832,4.1775838 L 3.0617053,0.21974226"
           style="fill:none;fill-rule:evenodd;stroke:#000000;stroke-width:0.8;marker-start:none;marker-end:none;stroke-linecap:round" />
        <path
           id="path3821"
           d="M 1.3053582,4.1775838 L 5.6537466,0.21974226"
           style="fill:none;fill-rule:evenodd;stroke:#000000;stroke-width:0.8;marker-start:none;marker-end:none;stroke-linecap:round" />
      </g>
    </marker>
    <marker
       inkscape:stockid="Arrow1Lend"
       orient="auto"
       refY="0.0"
       refX="0.0"
       id="Arrow1Lend"
       style="overflow:visible;">
      <path
         id="path3776"
         d="M 0.0,0.0 L 5.0,-5.0 L -12.5,0.0 L 5.0,5.0 L 0.0,0.0 z "
         style="fill-rule:evenodd;stroke:#000000;stroke-width:1.0pt;marker-start:none;"
         transform="scale(0.8) rotate(180) translate(12.5,0)" />
    </marker>
    <marker
       inkscape:stockid="Arrow1Lstart"
       orient="auto"
       refY="0.0"
       refX="0.0"
       id="Arrow1Lstart"
       style="overflow:visible">
      <path
         id="path3773"
         d="M 0.0,0.0 L 5.0,-5.0 L -12.5,0.0 L 5.0,5.0 L 0.0,0.0 z "
         style="fill-rule:evenodd;stroke:#000000;stroke-width:1.0pt;marker-start:none"
         transform="scale(0.8) translate(12.5,0)" />
    </marker>
    <filter
       inkscape:collect="always"
       id="filter5200"
       x="-0.097796977"
       width="1.195594"
       y="-0.57015737"
       height="2.1403147">
      <feGaussianBlur
         inkscape:collect="always"
         stdDeviation="3.2300936"
         id="feGaussianBlur5202" />
    </filter>
  </defs>
  <sodipodi:namedview
     id="base"
     pagecolor="#ffffff"
     bordercolor="#666666"
     borderopacity="1.0"
     inkscape:pageopacity="0.0"
     inkscape:pageshadow="2"
     inkscape:zoom="15.839192"
     inkscape:cx="41.446484"
     inkscape:cy="1044.4326"
     inkscape:document-units="px"
     inkscape:current-layer="layer1"
     showgrid="false"
     inkscape:window-width="1858"
     inkscape:window-height="1058"
     inkscape:window-x="54"
     inkscape:window-y="-8"
     inkscape:window-maximized="1" />
  <metadata
     id="metadata7">
    <rdf:RDF>
      <cc:Work
         rdf:about="">
        <dc:format>image/svg+xml</dc:format>
        <dc:type
           rdf:resource="http://purl.org/dc/dcmitype/StillImage" />
      </cc:Work>
    </rdf:RDF>
  </metadata>
  <g
     inkscape:label="Layer 1"
     inkscape:groupmode="layer"
     id="layer1">
    <g
       style="font-size:18px;font-style:normal;font-weight:normal;line-height:125%;letter-spacing:0px;word-spacing:0px;fill:#000000;fill-opacity:1;stroke:none;font-family:Cambira;-inkscape-font-specification:Cambira;filter:url(#filter5200)"
       id="text2985-8"
       transform="translate(-208.06104,-354.00055)">
      <path
         d="m 221.04311,360.54898 c -2e-5,0.58595 -0.10256,1.1587 -0.30762,1.71826 -0.20509,0.55958 -0.49806,1.02979 -0.87891,1.41065 -0.52149,0.51563 -1.10303,0.90528 -1.74463,1.16894 -0.64161,0.26368 -1.43995,0.39551 -2.39502,0.39551 l -2.10058,0 0,4.2627 -3.375,0 0,-13.08692 5.55469,0 c 0.83202,1e-5 1.53368,0.0718 2.10498,0.21533 0.57128,0.14357 1.07665,0.3589 1.51611,0.646 0.52733,0.34571 0.93016,0.7881 1.2085,1.32715 0.2783,0.53907 0.41746,1.18653 0.41748,1.94238 z m -3.48926,0.0791 c -1e-5,-0.36913 -0.0996,-0.687 -0.29883,-0.95361 -0.19923,-0.26659 -0.43067,-0.45263 -0.69434,-0.55811 -0.35157,-0.14061 -0.69434,-0.21825 -1.02832,-0.23291 -0.33399,-0.0146 -0.7793,-0.022 -1.33593,-0.022 l -0.58008,0 0,3.91992 0.9668,0 c 0.57421,1e-5 1.04735,-0.0352 1.41943,-0.10547 0.37206,-0.0703 0.68407,-0.21093 0.93603,-0.42187 0.21679,-0.18749 0.37353,-0.41161 0.47022,-0.67236 0.0967,-0.26074 0.14501,-0.57861 0.14502,-0.95362 z"
         style="font-variant:normal;font-weight:bold;font-stretch:normal;fill:#000000;fill-opacity:1;stroke:none;font-family:Verdana;-inkscape-font-specification:Verdana Bold"
         id="path2990-3"
         inkscape:connector-curvature="0" />
      <path
         d="m 235.51869,369.50504 -3.48926,0 -0.90527,-2.64551 -4.85156,0 -0.90528,2.64551 -3.40136,0 4.83398,-13.08692 3.88477,0 z m -5.21191,-5.04493 -1.6084,-4.69336 -1.6084,4.69336 z"
         style="font-variant:normal;font-weight:bold;font-stretch:normal;fill:#000000;fill-opacity:1;stroke:none;font-family:Verdana;-inkscape-font-specification:Verdana Bold"
         id="path2992-5"
         inkscape:connector-curvature="0" />
      <path
         d="m 248.87807,364.76773 c -2e-5,1.61719 -0.4922,2.85645 -1.47657,3.71777 -0.98438,0.86133 -2.43458,1.292 -4.35058,1.292 -1.91602,0 -3.36475,-0.43067 -4.34619,-1.292 -0.98145,-0.86132 -1.47217,-2.09765 -1.47217,-3.70898 l 0,-8.3584 3.39258,0 0,8.16504 c -10e-6,0.90821 0.19042,1.58496 0.57129,2.03027 0.38085,0.44532 0.99901,0.66797 1.85449,0.66797 0.84374,0 1.46044,-0.21386 1.8501,-0.6416 0.38964,-0.42773 0.58446,-1.11328 0.58447,-2.05664 l 0,-8.16504 3.39258,0 z"
         style="font-variant:normal;font-weight:bold;font-stretch:normal;fill:#000000;fill-opacity:1;stroke:none;font-family:Verdana;-inkscape-font-specification:Verdana Bold"
         id="path2994-0"
         inkscape:connector-curvature="0" />
      <path
         d="m 262.51869,365.39175 c -10e-6,1.28907 -0.5464,2.33643 -1.63916,3.14209 -1.09278,0.80567 -2.57667,1.2085 -4.45166,1.2085 -1.08399,0 -2.02881,-0.0952 -2.83447,-0.28564 -0.80567,-0.19043 -1.56006,-0.43213 -2.26318,-0.7251 l 0,-3.1377 0.36914,0 c 0.69726,0.55665 1.47802,0.98438 2.34228,1.28321 0.86425,0.29883 1.69482,0.44824 2.4917,0.44824 0.20507,0 0.4746,-0.0176 0.80859,-0.0527 0.33398,-0.0351 0.60644,-0.0937 0.81739,-0.17578 0.2578,-0.10546 0.4702,-0.2373 0.6372,-0.39551 0.16699,-0.1582 0.25048,-0.39257 0.25049,-0.70312 -10e-6,-0.28711 -0.12159,-0.53466 -0.36474,-0.74268 -0.24318,-0.208 -0.59913,-0.36767 -1.06787,-0.479 -0.4922,-0.11718 -1.01222,-0.22705 -1.56006,-0.32959 -0.54786,-0.10253 -1.06202,-0.2329 -1.54248,-0.39111 -1.10157,-0.35742 -1.89405,-0.84228 -2.37745,-1.45459 -0.4834,-0.6123 -0.72509,-1.37255 -0.72509,-2.28076 0,-1.21874 0.54638,-2.21337 1.63916,-2.98389 1.09277,-0.7705 2.49755,-1.15575 4.21435,-1.15576 0.86132,1e-5 1.7124,0.0835 2.55323,0.25048 0.84081,0.16701 1.56883,0.37648 2.18408,0.62842 l 0,3.01465 -0.36035,0 c -0.52736,-0.42186 -1.17335,-0.77489 -1.93799,-1.05908 -0.76466,-0.28417 -1.54542,-0.42626 -2.34229,-0.42627 -0.28125,10e-6 -0.56104,0.019 -0.83935,0.0571 -0.27833,0.0381 -0.5464,0.10987 -0.8042,0.21533 -0.22852,0.0879 -0.42481,0.2212 -0.58887,0.3999 -0.16407,0.17872 -0.2461,0.38234 -0.24609,0.61084 -1e-5,0.34572 0.13183,0.61085 0.3955,0.79541 0.26367,0.18458 0.76172,0.35304 1.49415,0.50537 0.48046,0.0996 0.94188,0.1963 1.38427,0.29004 0.44238,0.0938 0.91845,0.22267 1.42823,0.38672 1.00194,0.32813 1.74168,0.77491 2.21923,1.34033 0.47753,0.56544 0.7163,1.29933 0.71631,2.20166 z"
         style="font-variant:normal;font-weight:bold;font-stretch:normal;fill:#000000;fill-opacity:1;stroke:none;font-family:Verdana;-inkscape-font-specification:Verdana Bold"
         id="path2996-3"
         inkscape:connector-curvature="0" />
      <path
         d="m 274.30482,369.50504 -9.46582,0 0,-13.08692 9.46582,0 0,2.53125 -6.10839,0 0,2.25879 5.66894,0 0,2.53125 -5.66894,0 0,3.23438 6.10839,0 z"
         style="font-variant:normal;font-weight:bold;font-stretch:normal;fill:#000000;fill-opacity:1;stroke:none;font-family:Verdana;-inkscape-font-specification:Verdana Bold"
         id="path2998-9"
         inkscape:connector-curvature="0" />
      <path
         d="m 289.5099,362.97476 c -1e-5,1.21876 -0.27833,2.31006 -0.83496,3.27393 -0.55665,0.96387 -1.25978,1.70361 -2.10937,2.21924 -0.63869,0.38672 -1.33888,0.65625 -2.10059,0.80859 -0.76173,0.15234 -1.66407,0.22852 -2.70703,0.22852 l -4.61426,0 0,-13.08692 4.7461,0 c 1.06639,1e-5 1.98632,0.0894 2.75976,0.26807 0.77343,0.17872 1.42382,0.43214 1.95117,0.76025 0.90233,0.55079 1.61278,1.29347 2.13135,2.22803 0.51854,0.93458 0.77782,2.03467 0.77783,3.30029 z m -3.48925,-0.0264 c -2e-5,-0.86132 -0.15675,-1.59813 -0.47022,-2.21044 -0.31349,-0.6123 -0.81007,-1.0913 -1.48975,-1.43702 -0.34571,-0.16991 -0.69873,-0.28563 -1.05908,-0.34716 -0.36036,-0.0615 -0.90381,-0.0923 -1.63037,-0.0923 l -0.85254,0 0,8.19141 0.85254,0 c 0.80273,0 1.3916,-0.0366 1.7666,-0.10987 0.37499,-0.0732 0.74121,-0.20654 1.09864,-0.3999 0.61522,-0.35156 1.06639,-0.82177 1.35351,-1.41064 0.2871,-0.58887 0.43065,-1.31689 0.43067,-2.18409 z"
         style="font-variant:normal;font-weight:bold;font-stretch:normal;fill:#000000;fill-opacity:1;stroke:none;font-family:Verdana;-inkscape-font-specification:Verdana Bold"
         id="path3000-9"
         inkscape:connector-curvature="0" />
    </g>
    <g
       style="font-size:18px;font-style:normal;font-weight:normal;line-height:125%;letter-spacing:0px;word-spacing:0px;fill:#ffffff;fill-opacity:1;stroke:none;font-family:Cambira;-inkscape-font-specification:Cambira"
       id="text2985"
       transform="translate(-208.06104,-353.13701)">
      <path
         d="m 221.04311,360.54898 c -2e-5,0.58595 -0.10256,1.1587 -0.30762,1.71826 -0.20509,0.55958 -0.49806,1.02979 -0.87891,1.41065 -0.52149,0.51563 -1.10303,0.90528 -1.74463,1.16894 -0.64161,0.26368 -1.43995,0.39551 -2.39502,0.39551 l -2.10058,0 0,4.2627 -3.375,0 0,-13.08692 5.55469,0 c 0.83202,1e-5 1.53368,0.0718 2.10498,0.21533 0.57128,0.14357 1.07665,0.3589 1.51611,0.646 0.52733,0.34571 0.93016,0.7881 1.2085,1.32715 0.2783,0.53907 0.41746,1.18653 0.41748,1.94238 z m -3.48926,0.0791 c -1e-5,-0.36913 -0.0996,-0.687 -0.29883,-0.95361 -0.19923,-0.26659 -0.43067,-0.45263 -0.69434,-0.55811 -0.35157,-0.14061 -0.69434,-0.21825 -1.02832,-0.23291 -0.33399,-0.0146 -0.7793,-0.022 -1.33593,-0.022 l -0.58008,0 0,3.91992 0.9668,0 c 0.57421,1e-5 1.04735,-0.0352 1.41943,-0.10547 0.37206,-0.0703 0.68407,-0.21093 0.93603,-0.42187 0.21679,-0.18749 0.37353,-0.41161 0.47022,-0.67236 0.0967,-0.26074 0.14501,-0.57861 0.14502,-0.95362 z"
         style="font-variant:normal;font-weight:bold;font-stretch:normal;fill:#ffffff;fill-opacity:1;stroke:none;font-family:Verdana;-inkscape-font-specification:Verdana Bold"
         id="path2990"
         inkscape:connector-curvature="0" />
      <path
         d="m 235.51869,369.50504 -3.48926,0 -0.90527,-2.64551 -4.85156,0 -0.90528,2.64551 -3.40136,0 4.83398,-13.08692 3.88477,0 z m -5.21191,-5.04493 -1.6084,-4.69336 -1.6084,4.69336 z"
         style="font-variant:normal;font-weight:bold;font-stretch:normal;fill:#ffffff;fill-opacity:1;stroke:none;font-family:Verdana;-inkscape-font-specification:Verdana Bold"
         id="path2992"
         inkscape:connector-curvature="0" />
      <path
         d="m 248.87807,364.76773 c -2e-5,1.61719 -0.4922,2.85645 -1.47657,3.71777 -0.98438,0.86133 -2.43458,1.292 -4.35058,1.292 -1.91602,0 -3.36475,-0.43067 -4.34619,-1.292 -0.98145,-0.86132 -1.47217,-2.09765 -1.47217,-3.70898 l 0,-8.3584 3.39258,0 0,8.16504 c -10e-6,0.90821 0.19042,1.58496 0.57129,2.03027 0.38085,0.44532 0.99901,0.66797 1.85449,0.66797 0.84374,0 1.46044,-0.21386 1.8501,-0.6416 0.38964,-0.42773 0.58446,-1.11328 0.58447,-2.05664 l 0,-8.16504 3.39258,0 z"
         style="font-variant:normal;font-weight:bold;font-stretch:normal;fill:#ffffff;fill-opacity:1;stroke:none;font-family:Verdana;-inkscape-font-specification:Verdana Bold"
         id="path2994"
         inkscape:connector-curvature="0" />
      <path
         d="m 262.51869,365.39175 c -10e-6,1.28907 -0.5464,2.33643 -1.63916,3.14209 -1.09278,0.80567 -2.57667,1.2085 -4.45166,1.2085 -1.08399,0 -2.02881,-0.0952 -2.83447,-0.28564 -0.80567,-0.19043 -1.56006,-0.43213 -2.26318,-0.7251 l 0,-3.1377 0.36914,0 c 0.69726,0.55665 1.47802,0.98438 2.34228,1.28321 0.86425,0.29883 1.69482,0.44824 2.4917,0.44824 0.20507,0 0.4746,-0.0176 0.80859,-0.0527 0.33398,-0.0351 0.60644,-0.0937 0.81739,-0.17578 0.2578,-0.10546 0.4702,-0.2373 0.6372,-0.39551 0.16699,-0.1582 0.25048,-0.39257 0.25049,-0.70312 -10e-6,-0.28711 -0.12159,-0.53466 -0.36474,-0.74268 -0.24318,-0.208 -0.59913,-0.36767 -1.06787,-0.479 -0.4922,-0.11718 -1.01222,-0.22705 -1.56006,-0.32959 -0.54786,-0.10253 -1.06202,-0.2329 -1.54248,-0.39111 -1.10157,-0.35742 -1.89405,-0.84228 -2.37745,-1.45459 -0.4834,-0.6123 -0.72509,-1.37255 -0.72509,-2.28076 0,-1.21874 0.54638,-2.21337 1.63916,-2.98389 1.09277,-0.7705 2.49755,-1.15575 4.21435,-1.15576 0.86132,1e-5 1.7124,0.0835 2.55323,0.25048 0.84081,0.16701 1.56883,0.37648 2.18408,0.62842 l 0,3.01465 -0.36035,0 c -0.52736,-0.42186 -1.17335,-0.77489 -1.93799,-1.05908 -0.76466,-0.28417 -1.54542,-0.42626 -2.34229,-0.42627 -0.28125,10e-6 -0.56104,0.019 -0.83935,0.0571 -0.27833,0.0381 -0.5464,0.10987 -0.8042,0.21533 -0.22852,0.0879 -0.42481,0.2212 -0.58887,0.3999 -0.16407,0.17872 -0.2461,0.38234 -0.24609,0.61084 -1e-5,0.34572 0.13183,0.61085 0.3955,0.79541 0.26367,0.18458 0.76172,0.35304 1.49415,0.50537 0.48046,0.0996 0.94188,0.1963 1.38427,0.29004 0.44238,0.0938 0.91845,0.22267 1.42823,0.38672 1.00194,0.32813 1.74168,0.77491 2.21923,1.34033 0.47753,0.56544 0.7163,1.29933 0.71631,2.20166 z"
         style="font-variant:normal;font-weight:bold;font-stretch:normal;fill:#ffffff;fill-opacity:1;stroke:none;font-family:Verdana;-inkscape-font-specification:Verdana Bold"
         id="path2996"
         inkscape:connector-curvature="0" />
      <path
         d="m 274.30482,369.50504 -9.46582,0 0,-13.08692 9.46582,0 0,2.53125 -6.10839,0 0,2.25879 5.66894,0 0,2.53125 -5.66894,0 0,3.23438 6.10839,0 z"
         style="font-variant:normal;font-weight:bold;font-stretch:normal;fill:#ffffff;fill-opacity:1;stroke:none;font-family:Verdana;-inkscape-font-specification:Verdana Bold"
         id="path2998"
         inkscape:connector-curvature="0" />
      <path
         d="m 289.5099,362.97476 c -1e-5,1.21876 -0.27833,2.31006 -0.83496,3.27393 -0.55665,0.96387 -1.25978,1.70361 -2.10937,2.21924 -0.63869,0.38672 -1.33888,0.65625 -2.10059,0.80859 -0.76173,0.15234 -1.66407,0.22852 -2.70703,0.22852 l -4.61426,0 0,-13.08692 4.7461,0 c 1.06639,1e-5 1.98632,0.0894 2.75976,0.26807 0.77343,0.17872 1.42382,0.43214 1.95117,0.76025 0.90233,0.55079 1.61278,1.29347 2.13135,2.22803 0.51854,0.93458 0.77782,2.03467 0.77783,3.30029 z m -3.48925,-0.0264 c -2e-5,-0.86132 -0.15675,-1.59813 -0.47022,-2.21044 -0.31349,-0.6123 -0.81007,-1.0913 -1.48975,-1.43702 -0.34571,-0.16991 -0.69873,-0.28563 -1.05908,-0.34716 -0.36036,-0.0615 -0.90381,-0.0923 -1.63037,-0.0923 l -0.85254,0 0,8.19141 0.85254,0 c 0.80273,0 1.3916,-0.0366 1.7666,-0.10987 0.37499,-0.0732 0.74121,-0.20654 1.09864,-0.3999 0.61522,-0.35156 1.06639,-0.82177 1.35351,-1.41064 0.2871,-0.58887 0.43065,-1.31689 0.43067,-2.18409 z"
         style="font-variant:normal;font-weight:bold;font-stretch:normal;fill:#ffffff;fill-opacity:1;stroke:none;font-family:Verdana;-inkscape-font-specification:Verdana Bold"
         id="path3000"
         inkscape:connector-curvature="0" />
    </g>
  </g>
</svg>
