<?xml version="1.0" encoding="UTF-8" standalone="no"?>
<!-- Created with Inkscape (http://www.inkscape.org/) -->

<svg
   xmlns:dc="http://purl.org/dc/elements/1.1/"
   xmlns:cc="http://creativecommons.org/ns#"
   xmlns:rdf="http://www.w3.org/1999/02/22-rdf-syntax-ns#"
   xmlns:svg="http://www.w3.org/2000/svg"
   xmlns="http://www.w3.org/2000/svg"
   xmlns:xlink="http://www.w3.org/1999/xlink"
   xmlns:sodipodi="http://sodipodi.sourceforge.net/DTD/sodipodi-0.dtd"
   xmlns:inkscape="http://www.inkscape.org/namespaces/inkscape"
   width="744.09448819"
   height="1052.3622047"
   id="svg2"
   version="1.1"
   inkscape:version="0.48.1 "
   sodipodi:docname="Sniper_tweet2.svg">
  <defs
     id="defs4">
    <linearGradient
       id="linearGradient3905">
      <stop
         style="stop-color:#000000;stop-opacity:1;"
         offset="0"
         id="stop3907" />
      <stop
         id="stop3913"
         offset="0.77723253"
         style="stop-color:#000000;stop-opacity:0.78431374;" />
      <stop
         style="stop-color:#000000;stop-opacity:0;"
         offset="1"
         id="stop3909" />
    </linearGradient>
    <linearGradient
       id="linearGradient3897">
      <stop
         style="stop-color:#000000;stop-opacity:1;"
         offset="0"
         id="stop3899" />
      <stop
         id="stop5786"
         offset="0.69999999"
         style="stop-color:#000000;stop-opacity:0.70588237;" />
      <stop
         style="stop-color:#000000;stop-opacity:0;"
         offset="1"
         id="stop3901" />
    </linearGradient>
    <linearGradient
       id="linearGradient3889">
      <stop
         style="stop-color:#000000;stop-opacity:1;"
         offset="0"
         id="stop3891" />
      <stop
         id="stop5788"
         offset="0.45009097"
         style="stop-color:#000000;stop-opacity:0.49803922;" />
      <stop
         style="stop-color:#000000;stop-opacity:0;"
         offset="1"
         id="stop3893" />
    </linearGradient>
    <linearGradient
       id="linearGradient3837">
      <stop
         style="stop-color:#000000;stop-opacity:1;"
         offset="0"
         id="stop3839" />
      <stop
         id="stop3847"
         offset="0.6716767"
         style="stop-color:#000000;stop-opacity:0.58928573;" />
      <stop
         id="stop3845"
         offset="0.82522762"
         style="stop-color:#000000;stop-opacity:0.49803922;" />
      <stop
         style="stop-color:#000000;stop-opacity:0;"
         offset="1"
         id="stop3841" />
    </linearGradient>
    <linearGradient
       id="linearGradient3825">
      <stop
         style="stop-color:#000000;stop-opacity:1;"
         offset="0"
         id="stop3827" />
      <stop
         id="stop3849"
         offset="0.74276656"
         style="stop-color:#000000;stop-opacity:0.64285713;" />
      <stop
         id="stop3835"
         offset="0.87711364"
         style="stop-color:#000000;stop-opacity:0.49803922;" />
      <stop
         style="stop-color:#000000;stop-opacity:0;"
         offset="1"
         id="stop3829" />
    </linearGradient>
    <linearGradient
       id="linearGradient3803">
      <stop
         style="stop-color:#000000;stop-opacity:0.8214286;"
         offset="0"
         id="stop3805" />
      <stop
         id="stop3823"
         offset="0.49999988"
         style="stop-color:#000000;stop-opacity:0.49803922;" />
      <stop
         style="stop-color:#000000;stop-opacity:0;"
         offset="1"
         id="stop3807" />
    </linearGradient>
    <linearGradient
       inkscape:collect="always"
       xlink:href="#linearGradient3889"
       id="linearGradient3895"
       x1="87.150536"
       y1="1.1572837"
       x2="148.57143"
       y2="-7.5425763e-007"
       gradientUnits="userSpaceOnUse" />
    <linearGradient
       inkscape:collect="always"
       xlink:href="#linearGradient3897"
       id="linearGradient3903"
       x1="63.307678"
       y1="0.87730193"
       x2="148.57143"
       y2="-1.0303351e-006"
       gradientUnits="userSpaceOnUse" />
    <linearGradient
       inkscape:collect="always"
       xlink:href="#linearGradient3905"
       id="linearGradient3911"
       x1="73.593079"
       y1="0.77147251"
       x2="148.57143"
       y2="-1.0626224e-006"
       gradientUnits="userSpaceOnUse" />
  </defs>
  <sodipodi:namedview
     id="base"
     pagecolor="#ffffff"
     bordercolor="#666666"
     borderopacity="1.0"
     inkscape:pageopacity="0.0"
     inkscape:pageshadow="2"
     inkscape:zoom="2"
     inkscape:cx="7.3000374"
     inkscape:cy="1130.2323"
     inkscape:document-units="px"
     inkscape:current-layer="g3884"
     showgrid="false"
     inkscape:window-width="1858"
     inkscape:window-height="1058"
     inkscape:window-x="54"
     inkscape:window-y="-8"
     inkscape:window-maximized="1" />
  <metadata
     id="metadata7">
    <rdf:RDF>
      <cc:Work
         rdf:about="">
        <dc:format>image/svg+xml</dc:format>
        <dc:type
           rdf:resource="http://purl.org/dc/dcmitype/StillImage" />
        <dc:title />
      </cc:Work>
    </rdf:RDF>
  </metadata>
  <g
     inkscape:label="Layer 1"
     inkscape:groupmode="layer"
     id="layer1">
    <g
       id="g3855"
       transform="matrix(0.99994707,0.01028874,-0.01028874,0.99994707,-348.86344,-112.17443)"
       inkscape:transform-center-y="442.83707"
       inkscape:transform-center-x="3.2368952">
      <g
         id="g3884"
         transform="matrix(0,-1,1,0,-59.286334,636.07532)"
         style="fill:#000000;fill-opacity:0.66492148">
        <path
           inkscape:transform-center-y="0.36414279"
           inkscape:transform-center-x="-24.999999"
           transform="matrix(0.33653835,0,0,0.33653835,527.498,409.289)"
           sodipodi:type="arc"
           style="color:#000000;fill:url(#linearGradient3895);fill-opacity:1;fill-rule:nonzero;stroke:none;stroke-width:1;marker:none;visibility:visible;display:inline;overflow:visible;enable-background:accumulate"
           id="path2987"
           sodipodi:cx="0"
           sodipodi:cy="0"
           sodipodi:rx="148.57143"
           sodipodi:ry="148.57143"
           d="m 105.05586,-105.05587 c 58.02075,58.020751 58.02076,152.090975 1e-5,210.11173 0,0 -1e-5,0 -1e-5,1e-5 L 0,0 z"
           sodipodi:start="5.4977871"
           sodipodi:end="7.0685835" />
        <path
           transform="matrix(0.67307693,0,0,0.67307693,527.49799,409.28785)"
           sodipodi:type="arc"
           style="color:#000000;fill:url(#linearGradient3903);fill-opacity:1;fill-rule:nonzero;stroke:none;stroke-width:1;marker:none;visibility:visible;display:inline;overflow:visible;enable-background:accumulate"
           id="path2987-2"
           sodipodi:cx="0"
           sodipodi:cy="0"
           sodipodi:rx="148.57143"
           sodipodi:ry="148.57143"
           d="m 143.50898,-38.453117 c 6.74993,25.191088 6.74993,51.715144 0,76.906232 L 0,0 z"
           sodipodi:start="6.0213859"
           sodipodi:end="6.5449847"
           inkscape:transform-center-y="168.26923" />
        <path
           transform="matrix(1.7768311,-0.00893334,-0.00893334,0.90870539,527.50092,409.95273)"
           sodipodi:type="arc"
           style="color:#000000;fill:url(#linearGradient3911);fill-opacity:1;fill-rule:nonzero;stroke:none;stroke-width:0.99988568;marker:none;visibility:visible;display:inline;overflow:visible;enable-background:accumulate"
           id="path2987-2-6"
           sodipodi:cx="0"
           sodipodi:cy="0"
           sodipodi:rx="148.57143"
           sodipodi:ry="148.57143"
           d="m 148.00607,-12.94886 a 148.57143,148.57143 0 0 1 0,25.897717 L 0,0 z"
           sodipodi:start="6.1959188"
           sodipodi:end="6.3704518" />
      </g>
    </g>
  </g>
</svg>
